<?xml version="1.0" encoding="utf-8"?>
<!-- Generator: Adobe Illustrator 16.0.0, SVG Export Plug-In . SVG Version: 6.00 Build 0)  -->
<!DOCTYPE svg PUBLIC "-//W3C//DTD SVG 1.1//EN" "http://www.w3.org/Graphics/SVG/1.1/DTD/svg11.dtd">
<svg version="1.1" id="Layer_1" xmlns="http://www.w3.org/2000/svg" xmlns:xlink="http://www.w3.org/1999/xlink" x="0px" y="0px"
	 width="12px" height="12px" viewBox="7.875 9.5 12 12" enable-background="new 7.875 9.5 12 12" xml:space="preserve">
<g>
	<g>
		<path fill="#FB848A" d="M13.875,14c0,0.824-0.676,1.5-1.5,1.5h-3c-0.824,0-1.5-0.676-1.5-1.5v-3c0-0.824,0.676-1.5,1.5-1.5h3
			c0.824,0,1.5,0.676,1.5,1.5V14z"/>
		<path fill="#FFC475" d="M19.875,14c0,0.824-0.676,1.5-1.5,1.5h-3c-0.824,0-1.5-0.676-1.5-1.5v-3c0-0.824,0.676-1.5,1.5-1.5h3
			c0.824,0,1.5,0.676,1.5,1.5V14z"/>
		<path fill="#FFB09F" d="M13.875,20c0,0.824-0.676,1.5-1.5,1.5h-3c-0.824,0-1.5-0.676-1.5-1.5v-3c0-0.824,0.676-1.5,1.5-1.5h3
			c0.824,0,1.5,0.676,1.5,1.5V20z"/>
		<path fill="#FE575E" d="M19.875,20c0,0.824-0.676,1.5-1.5,1.5h-3c-0.824,0-1.5-0.676-1.5-1.5v-3c0-0.824,0.676-1.5,1.5-1.5h3
			c0.824,0,1.5,0.676,1.5,1.5V20z"/>
	</g>
</g>
</svg>
